id_type,nom_type,arch_princ,arch_sec,mobilier,mots_cles,creusement,contenant,position_corps,elemt_port,calage_tete,mob_accomp,date_debut,date_fin,type_datation,commune,nom_site,id_op,contexte,effectif_sep,age_cons
cha_sai_1,coffrage en moellons maçonnés,coffrage en moellons calcaires maçonnés,fond de planche en bois; aménagement céphalique; couverture en moellons calcaires maçonnés,,moellons; calcaire; mortier; planche,de forme indéterminée,mixte,couchée,indéterminé,oui,non,1050,1225,carbone 14,Châteauroux,Saint-Christophe (place),cha_sai,cimetière paroissial,9,adultes
leb_lib_1,coffrage en moellons maçonnés,coffrage en moellons calcaires maçonnés,moellons ou dalles (50x40 cm) calcaires,,moellons; dalles; calcaire; mortier,de forme indéterminée,en pierres,couchée,indéterminé,non,non,1039,1210,carbone 14,Le Blanc,Libération (place de la),leb_lib,cimetière urbain,11,adultes
ges_sai_1,sarcophage,sarcophage,"trapézoïdal, calcaire coquillier",bague (560-670),sarcophage ; calcaire,de volume simple,sarcophage,couchée,indéterminé,non,oui,555,655,carbone 14,Gesté,Saint-Pierre-aux-Liens (église),ges_sai,nécropole,8,adultes
ges_sai_2,contenant cloué,contenant cloué,calage de TCA,,clous ; TCA,de volume simple,en matériau périssable cloué,couchée,indéterminé,oui,non,1277,1393,carbone 14,Gesté,Saint-Pierre-aux-Liens (église),ges_sai,cimetière paroissial,1,adulte
ges_sai_3,contenant non cloué,contenant non cloué,support périssable,,contenant ; bois,de volume simple,en matériau périssable non cloué,couchée,indéterminé,non,non,680,874,carbone 14,Gesté,Saint-Pierre-aux-Liens (église),ges_sai,cimetière paroissial,12,adultes
bom_gra_1,coffrage en bois,contenant non cloué,support périssable,,contenant ; bois,de volume simple,en matériau périssable non cloué,couchée,indéterminé,non,non,777,1155,carbone 14,Bommiers,Grande Rue et Place de l'Eglise,bom_gra,cimetière paroissial,19,adultes ; immature
neu_bou_1,sarcophage,sarcophage,"trapézoïdal, monolithe, craie de Villedieu",plaque-boucles ; contre-plaques ; ferrets ,sarcophage,de volume simple,sarcophage,couchée,vêtements,non,oui,600,670,mobilier,Neuillé-le-Lierre,Bourg (le) ; rue de la république ; rue nationale ; rue Jeanne Deshaye ; rue Deceste ; rue Pierre Fillet,neu_bou,nécropole,5,adultes
lac_abb_1,pleine terre,pleine terre,linceul et épingles,épingle moulée à tête hémisphérique ; épingle mixte (verre et cuivre, pleine terre linceul et épingles,de volume simple,pleine terre,couchée,enveloppe souple,non,non,1432,1633,carbone 14,La Chapelle-Blanche-Saint-Martin,Abbé Favoreau (rue),lac_abb,cimetière paroissial,1,adulte
noh_bou_1,fosse anthropomorphe,creusement anthropomorphe ,logette céphalique,,anthropomorphe; logette céphalique,anthropomorphe,pleine terre,couchée,indéterminé,non,non,1025,1165,carbone 14,Nohant-Vic,Bourg de Vic (le),noh_bou,cimetière paroissial,3,adultes
noh_bou_2,coffrage en tuiles,coffrage en tuile,"reemploi de TCA (tegula, imbrex, pilette, suspensura)",,tuiles; TCA; brique; coffrage,de volume simple,en tuile,couchée,indéterminé,non,non,428,609,carbone 14,Nohant-Vic,Bourg de Vic (le),noh_bou,cimetière paroissial,1,adulte
noh_bou_3,sépulture avec pierres de calage,sépulture avec pierre de calages,calage de bloc calcaire,,"calage, calcaire",de volume simple,mixte,couchée,indéterminé,non,non,894,1018,carbone 14,Nohant-Vic,Bourg de Vic (le),noh_bou,cimetière paroissial,9,adultes
lar_pri_1,coffrage en moellons maçonnés,coffrage aérien,"fond et couverture en dalle de pierre, coffrage aménagé dans le banc en pierre du cloître de Saint Cosme",,moellons ; calcaire ; mortier ; aérien ; dalles,de volume simple,en pierres,couchée,indéterminé,oui,oui,1100,1150,carbone 14 ; archives,La Riche,Prieuré Saint-Cosme,lar_pri,Cimetière monastique - cloître,2,adultes
lar_pri_2,sarcophage en réemploi,sarcophage,couverture de dalle calcaire en bâtière,,sarcophage ; réemploi,de volume simple,sarcophage,couchée,indéterminé,non,oui,1100,1150,carbone 14 ; archives,La Riche,Prieuré Saint-Cosme,lar_pri,Cimetière monastique - cloître,2,adultes
lar_pri_3,sarcophage en réemploi avec réductions,sarcophage,couverture de dalle calcaire en bâtière,,sarcophage ; réemploi ; réductions de squelettes,de volume simple,sarcophage,couchée,indéterminé,non,oui,1200,1350,carbone 14 ; stratigraphie,La Riche,Prieuré Saint-Cosme,lar_pri,Cimetière monastique - cloître,3,adultes
sar_gui_1,contenant non cloué,contenant non cloué,support périssable,aucun,contenant ; bois,de forme indéterminée,en matériau périssable non cloué,couchée,vêtements,non,non,680,880,carbone 14,Saran,Guignace (la),sar_gui,Tombe isolée,1,immature
sar_gui_2,coffrage de tuiles,coffrage de tuiles,tuiles (tegula pour celles déterminables),aucun,coffrage ; TCA,structure prééxistante,en tuile,couchée,indéterminé,non,non,660,810,carbone 14,Saran,Guignace (la),sar_gui,Tombe isolée,1,adulte
sar_gui_3,pleine terre,pleine terre,aucune,aucun,pleine terre,de volume simple,pleine terre,couchée,enveloppe souple,non,non,751,800,stratigraphie,Saran,Guignace (la),sar_gui,Tombe isolée,1,adulte
sar_gui_4,pleine terre,pleine terre,aucune,aucun,pleine terre,de volume simple,pleine terre,couchée,indéterminé,non,non,770,970,carbone 14,Saran,Guignace (la),sar_gui,Tombe isolée,2,adulte
all_mar_1,coffrage de bois,contenant non cloué,coffrage de bois maintenue par des pierres calcaire ou des pseudo banquette de TN en remblais,"les éléments mobiliers correspondent, d’une part, à des éléments d’armement (e.g. scramasaxe) et, d’autre part, à des accessoires vestimentaires (e.g. éléments de ceintures, fibules, appliques, agrafes à crochets)",coffrage de bois ; pierre de calage ; mobilier métallique,de volume simple,mixte,couchée,vêtements,non,oui,660,780,carbone 14,Allonnes,Mare des Saules (la),all_mar,nécropole communautaire et ensembles funéraires satellites,43,tous âges
all_mar_2,sarcophages de plâtre ,sarcophages,"trapézoïdal, plâtre.",accessoires vestimentaires,sarcophage ; plâtre,de volume simple,sarcophage,couchée,vêtements,non,oui,630,770,carbone 14,Allonnes,Mare des Saules (la),all_mar,nécropole communautaire et ensembles funéraires satellites,6,adultes
all_mar_3,fosse anthropomorphe,creusement anthropomorphe,"creusement anthropomorphe à couverture de planches. Une tombe présente une ""variante"" avec des rainures dans les deux banquettes destinées à accueillir des traverses pour supporter la couverture (sous type à créer?)",mobilier indéterminé en fer (boucle et tige creuse) dans la sépulture de l'église,anthropomorphe ; bois,anthropomorphe,en matériau périssable non cloué,couchée,indéterminé,oui,non,890,1030,carbone 14,Allonnes,Mare des Saules (la),all_mar,cimetière paroissial? ; église,7,adultes ; immatures
all_mar_4,coffrage de bois,contenant non cloué,"coffrage de bois avec ou sans blocs calcaires. Dans les 5 cas où ces pierres entouraient le corps, dans 3 elles étaieint au niveau de la tête et formait une logette céphalique (sous type à créer?)",,coffrage de bois ; pierre de calage ; mobilier métallique,anthropomorphe,mixte,couchée,indéterminé,oui,non,890,1160,carbone 14,Allonnes,Mare des Saules (la),all_mar,cimetière paroissial?,10,adultes ; immatures
all_mar_5,pleine terre,pleine terre,cet enregistrement regroupe le type pleine terre et le type linceul (voir si on fait la différence ou pas),4 ferrets d'aiguillettes (F335),pleine terre ; linceul ; ferrets d'aiguillettes,de volume simple,pleine terre,couchée,enveloppe souple,non,oui,1010,1160,carbone 14,Allonnes,Mare des Saules (la),all_mar,cimetière paroissial?,14,adultes ; adolescents ; immature
all_mar_6,contenant en bois,contenant non cloué,contenant en bois (coffrage ou plutôt cercueil chevillé?),"2 épingles (F338) et chainettes dont les maillons sont en fer (collier?), nombreux ferrets d'aiguillettes en all cu (à la taille) et une boucle du même alliage au pied (F784",,de volume simple,en matériau périssable non cloué,couchée,vêtements,non,oui,1201,1669,carbone 14 ; stratigraphie ; mobilier ; archives,Allonnes,Mare des Saules (la),all_mar,"Petit ensemble funéraire indéterminé ; chapelle
",13,adultes ; immatures
all_mar_7,couvercle de bois,couvercle de bois,couvercle de bois,aucun,couvercle ; bois,de volume simple,en matériau périssable non cloué,couchée,indéterminé,non,non,1201,1669,stratigraphie ; archives,Allonnes,Mare des Saules (la),all_mar,"chapelle
",1,immature
all_mar_8,pleine terre,pleine terre,aucune,aucun,pleine terre,de volume simple,pleine terre,couchée,indéterminé,non,non,1201,1669,carbone 14 ; stratigraphie ; mobilier ; archives,Allonnes,Mare des Saules (la),all_mar,"Petit ensemble funéraire indéterminé ; chapelle
",18,adultes ; adolescents ; immatures
neu_egl_1,coffrage,contenant non cloué,"Différents sous-types (a subdiviser, à voir). 1) Le coffrage mixte : pierre et bois. Mal observé sur ce site car ne concerne que quelques cas incomplets. 2) Le coffrage de bois. Ils sont très bien connus ici car bien conservés. Ils sont constitués de bois assemblé. Rectangulaire ou trapézoidale en plan. Dont un cas de sépulture avec linceul.",aucun,coffrage de bois ; coffrage mixte ; bois ; calcaire,de volume simple,en matériau périssable non cloué,couchée,indéterminé,non,non,688,882,carbone 14,Neuville-aux-Bois,église Saint-Symphorien,neu_egl,cimetière paroissial?,10,adultes
neu_egl_2,fosse anthropomorphe,creusement anthropomorphe,"sépulture où le défunt est déposé avec un linceul (cousu ou lié, pas d'élément de fermeture conservé) et la fosse est comblée ensuite",aucun,anthropomorphe,anthropomorphe,pleine terre,couchée,enveloppe souple,oui,non,890,1015,carbone 14,Neuville-aux-Bois,église Saint-Symphorien,neu_egl,cimetière paroissial?,3,adultes
neu_egl_3,"fosse à banquettes
",fosse à banquette et couvercle de planches,"fosse quadrangulaire dans laquelle un surcreusement central plus étroit est aménagé (trapézoïdal/anthropomorphe ou rectangulaire). Dans cet espace limité dépot du défunt dans un linceul. Système de couverture constitué de planches de bois, qui repose sur les banquettes puis la fosse est comblée.",aucun,banquette ; bois,à aménagement(s) de parois,en matériau périssable non cloué,couchée,indéterminé,non,non,601,1200,stratigraphie ; mobilier,Neuville-aux-Bois,église Saint-Symphorien,neu_egl,"cimetière paroissial

",10,adultes
neu_egl_4,linceul/pleine terre,pleine terre,aucune,seuls deux cas où des épingles sont associées à ce type,pleine terre ; linceul,de volume simple,pleine terre,couchée,enveloppe souple,non,non,1001,1808,carbone 14 ; stratigraphie ; mobilier ; archives,Neuville-aux-Bois,église Saint-Symphorien,neu_egl,cimetière paroissial,33,adultes ; immatures
neu_egl_5,contenant cloué : coffrage (montage inconnu),coffrage avec des clous,"ces coffrages présentent divers sous-types : assemblage à clous sans planche de fond, assemblage de parties puis dépôt dans la tombe (cf pdf)","anneau, un enfant avec perle de verre, épingle en all cu, vase à encens",,de volume simple,en matériau périssable cloué,couchée,enveloppe souple,non,oui,1251,1808,carbone 14 ; stratigraphie ; mobilier ; archives,Neuville-aux-Bois,église Saint-Symphorien,neu_egl,cimetière paroissial ; église,36,adultes ; immatures
neu_egl_6,contenant cloué : cercueil (montage hors fosse),cercueil,"Différents sous-types (a subdiviser? à voir). Formes rectangulaires, trapézoidales, hexagonales. Assemblages différents... Un cas possible de cercueil chevillé. Pour tt ça voir pdf","chapelet, épingle en all cu, vase à encens",,de volume simple,en matériau périssable cloué,couchée,enveloppe souple,non,oui,1301,1808,carbone 14 ; stratigraphie ; mobilier ; archives,Neuville-aux-Bois,église Saint-Symphorien,neu_egl,cimetière paroissial ; église,51,adultes ; immatures
orl_sai_1,contenant non cloué,contenant non cloué,"couvercle et fond en bois, contenant de forme rectangulaire",aucun,contenant ; bois,de volume simple,en matériau périssable non cloué,couchée,indéterminé,non,non,260,420,carbone 14,Orléans,"Saint-Marc (20, rue)",orl_sai,Petit ensemble funéraire,1,adulte
orl_sai_2,cercueil cloué,cercueil cloué,forme probablement rectangulaire,aucun,cercueil ; clous ; bois,de volume simple,en matériau périssable cloué,couchée,indéterminé,non,non,240,395,carbone 14,Orléans,"Saint-Marc (20, rue)",orl_sai,Petit ensemble funéraire,1,immature
orl_sai_3,cercueil cloué surmonté d'un massif de blocs calcaires,cercueil cloué,massif de blocs calcaires au-dessus du cercueil,aucun,cercueil ; clous ; bois ; moellons,de volume simple,en matériau périssable cloué,couchée,indéterminé,non,non,340,425,carbone 14,Orléans,"Saint-Marc (20, rue)",orl_sai,Petit ensemble funéraire,1,adulte
orl_fau_1,cercueil cloué,cercueil cloué,aucune,aucun,cercueil ; clous ; bois,de volume simple,en matériau périssable cloué,couchée,indéterminé,non,oui,250,400,carbone 14,Orléans,"Fauchets (3, rue des )",orl_fau,sépulture isolée ?,1,adulte
orl_hop_1,cercueil cloué,cercueil cloué,"fosse large, cercueil plutôt large","cruche du IIe ap. JC (F100), monnaies fin Ier-IIe ap. JC (F305)",cercueil : clous ; bois,de volume simple,en matériau périssable cloué,couchée,indéterminé,non,non,-40,240,carbone 14 ; monnaies ; céramique,Orléans,Hôpital Porte Madeleine,orl_hop,Petits espaces funéraires ?,3,adulte
lac_par_1,contenant cloué,contenant cloué?,,vase à encens,contenant ; clous ; bois,de volume simple,en matériau périssable cloué,couchée,indéterminé,non,oui,1285,1400,carbone 14,La Chapelle Saint Mesmin,Parvis de l'église,lac_par,cimetière paroissial,1,adulte
lac_par_2,contenant étroit,contenant étroit ; type lynceul,ossements en réduction,coquemars,contenant ; bois ; linceul ; réduction,de volume simple,en matériau périssable non cloué,couchée,enveloppe souple,non,oui,1290,1410,carbone 14,La Chapelle Saint Mesmin,Parvis de l'église,lac_par,cimetière paroissial,1,adulte
lac_par_3,contenant non cloué,contenant non cloué,contenant et fosse assez larges,aucun,contenant ; bois,de volume simple,en matériau périssable non cloué,couchée,indéterminé,non,non,770,965,carbone 14,La Chapelle Saint Mesmin,Parvis de l'église,lac_par,cimetière paroissial,1,adulte
orl_lyc_1,bâtière mixte,bâtière de tête en tegulae,bâtière en bois sur le reste du corps,aucun,bâtière ; mixte ; tegulae ; bois,de volume simple,mixte,couchée,indéterminé,non,non,242,386,carbone 14,Orléans,Lycée Saint-Euverte,orl_lyc,espace funéraire de l'Antiquité tardive,1,adulte
orl_lyc_2,cercueil cloué,cercueil cloué,aucune,aucun,cercueil ; clous ; bois,de volume simple,en matériau périssable cloué,couchée,indéterminé,non,non,60,420,carbone 14,Orléans,Lycée Saint-Euverte,orl_lyc,espace funéraire de l'Antiquité tardive,19,adulte ; immature
orl_lyc_3,sarcophage,sarcophage trapézoÏdal en calcaire,"cuve bipartite, couvercle monolithique, pas de décor (3 autres cas probables mais trop endommagés pour être certains)",aucun,sarcophage,de volume simple,sarcophage,couchée,indéterminé,non,non,420,564,carbone 14,Orléans,Lycée Saint-Euverte,orl_lyc,espace funéraire de l'Antiquité tardive,1,adulte
orl_che_1,bâtière en bois,bâtière en bois,"différentes variantes : clouées ou non, surélevée par rapport au fond de fosse ou non",aucun,bâtière ; bois,de volume simple,en matériau périssable cloué,couchée,indéterminé,non,non,800,1100,stratigraphie,Orléans,Cheval Rouge (place du),orl_che,cimetière paroissial,22,adulte ; adulte + immature
orl_che_2,coffrage maçonné,"coffrage maçonné, parois en mortier surmontées de blocs calcaires liés par du mortier",aucune,aucun,mortier ; calcaire,de volume simple,en pierres,couchée,indéterminé,non,non,1050,1220,carbone 14,Orléans,Cheval Rouge (place du),orl_che,cimetière paroissial,1,adulte
amb_rpb_1,contenant en bois,contenant non cloué,construction de planches de tour avec/sans couvercle ou simple couvercle,"poignard avec fourreau, bracelet et fibule en bronze",contenant ; bois ,de volume simple,en matériau périssable non cloué,couchée,indéterminé,non,oui,-176,-50,carbone 14,Amboise,RPB/ruelle farçin,amb_rpb,oppidum/habitat,1,adulte
esv_hau_1,Cercueil ou coffrage en bois,Assemblage de planches à l'aide clous et de pierres,"Le coffrage est un assemblage dans la fosse, le cercueil est mobile","Vases en céramique et en verre dont certains sont mutilés, figurine, monnaie, parrure",bois ; planche ; clou ; cercueil ; coffrage,de volume simple,en matériau périssable cloué,indéterminée,indéterminé,non,oui,-100,120,mobilier,Esvres,Haute-Cour ensemble 2,esv_ha2,Nécropole,10,immatures
esv_hau_2,Chambre funéraire,Aménagement d'une fosse de grand volume avec un couvrement,Contenant du corps non déterminé,"Vases en céramique dont certains sont mutilés, dépôt de quartier de viande",bois ; planche ; clou ; chambre,à aménagement(s) de parois,en matériau périssable cloué,indéterminée,indéterminé,non,oui,-40,-10,mobilier,Esvres,Haute-Cour ensemble 2,esv_ha2,Nécropole,1,immature
esv_hau_3,Chambre funéraire et cercueil,Aménagement d'une fosse de grand volume avec un couvrement,Le corps est contenu dans un cercueil,"Vases en céramique et en verre dont certains sont mutilés, armement",bois ; planche ; clou ; chambre ; cercueil,à aménagement(s) de parois,en matériau périssable cloué,indéterminée,indéterminé,non,oui,20,40,mobilier,Esvres,Haute-Cour ensemble 2,esv_ha2,Nécropole,1,immature
esv_hau_4,Dépôt dans une structure ouverte,Dépôt dans une structure ouverte,,"Parrure, armement",sans architecture,structure prééxistante,pleine terre,indéterminée,indéterminé,non,non,-150,-1,mobilier,Esvres,Haute-Cour ensemble 2,esv_ha2,Nécropole,1,adulte
esv_hau_5,Coffrage mixte,Assemblage de planches et de pierres,Assemblage dans la fosse,"Vases en céramique, parrure, monnaie","bois ; pierres ; planche ; clou, ;cercueil ; coffrage",de volume simple,mixte,indéterminée,indéterminé,non,oui,98,120,mobilier,Esvres,Haute-Cour ensemble 2,esv_ha2,Nécropole,1,immature
cor_lag_1,Coffrage cloué,coffrage en bois cloué,présence de clous régulièrement autour du corps mais cotation trop lacunaire pour certifier assemblage hors fosse,"Vase en céramique en dépôt au niveau des pieds, archéologiquement complète mais fragmentée avant dépôt","coffrage cloué; bois, dépôt",de volume simple,en matériau périssable cloué,couchée,indéterminé,non,oui,250,300,mobilier,Corquilleroy,La Grevasse,cor_lag,Nécropole,1,adulte
luc_ver_1,"Sepulture en fosse, en coffrage ou cercueil non cloué","Sepulture en fosse, en coffrage ou cercueil non cloué",présence a minima d'une couverture en bois au dessus du corps,,bois ; planche ; couverture ; fosse,de volume simple,en matériau périssable non cloué,couchée,indéterminé,non,non,780,1145,carbone 14,Luçay-le-Mâle,Verdun (place de),luc_ver,cimetière paroissial,2,adulte ; immature
luc_ver_2,Sépulture en fosse à logette céphalique,Sépulture en fosse à logette céphalique,,,coffrage ; cercueil ; bois ; planche ; couverture ; fosse,anthropomorphe,en matériau périssable non cloué,couchée,indéterminé,non,non,1,1145,stratigraphie,Luçay-le-Mâle,Verdun (place de),luc_ver,cimetière paroissial,1,adulte
esv_hau_6,Cercueil ou coffrage en bois,Assemblage de planches à l'aide clous et de pierres,"Le coffrage est un assemblage dans la fosse, le cercueil est mobile",Vases en céramique et objets,"bois, planche, clou, cercueil, coffrage",de volume simple,en matériau périssable cloué,indéterminée,indéterminé,non,oui,20,70,mobilier,Esvres,Haute-Cour ensemble 3,esv_ha3,Nécropole,2,immatures
esv_hau_7,Chambre funéraire,Aménagement d'une fosse de grand volume avec un couvrement,Contenant du coprs non déterminé,"13 vases, 1 fragment de bracelet","bois, planche, clou, chambre",à aménagement(s) de parois,en matériau périssable cloué,indéterminée,indéterminé,non,oui,40,70,mobilier,Esvres,Haute-Cour ensemble 3,esv_ha3,Nécropole,1,Immature
esv_hau_8,Coffrage mixte,Assemblage de planches et de pierres,Assemblage dans la fosse,1 vase ; 1 plaque métallique,"bois, pierre, planche, clou, coffrage",de volume simple,en matériau périssable non cloué,indéterminée,indéterminé,non,oui,-160,-110,mobilier,Esvres,Haute-Cour ensemble 3,esv_ha3,Nécropole,1,Immature
cou_fon_1,coffrage de bois,coffrage de bois,"le plus souvent avec calage de pierres (18 sur 28), 6 en espace vide sans calage de pierres. Présence d'éléments de surélévation des têtes pour tous (sauf un cas) soit en appuyant la tête sur la parois ou sur un dispositif de calage (pierres, coussins? pas précisé dans synthèse rapport, si besoin voir détail par tombe dans rapport","1 agrafe à double crochet (fer), une plaque boucle, une boucle sans ardillon. Tous en fer et dans des sépultures différentes",coffrage de bois ; bois ; calcaire,de volume simple,mixte,couchée,vêtements,oui,oui,751,925,carbone 14 ; mise en phase,Courcelles,Fontaine Bouillante (la),cou_fon,Nécropole rurale (proche d'un habitat?),24,adulte ; immature
fer_vil_1,coffrage en pierres,coffrage en pierres,"coffrages en pierres faits avec des moellons grossièrement équarris disposés en petit muret, localement jointoyé",aucun,calcaire ; mortier,de volume simple,en pierres,couchée,indéterminé,non,non,993,1154,carbone 14,Ferrières-en-Gâtinais,Ville (la),fer_vil,Cimetière monastique - cloître,3,adultes
asc_car_1,couvercle en matière périssable,fosse avec couvercle en matière périssable,aucune,Six épingles en alliage cuivreux d’un élément souple enveloppant le corps et Six ferrets en alliage cuivreux (dont un en fer).,bois ; épingle ; ferret ; malade,de volume simple,en matériau périssable non cloué,couchée,enveloppe souple,non,non,1490,1660,carbone 14,Aschères-le-Marché,Cardeuse (la),asc_car,sépulture isolée ?,1,adulte
boy_por_1,pleine terre,pleine terre,aucune,aucun,pleine terre,structure prééxistante,pleine terre,couchée,indéterminé,non,non,653,767,carbone 14,Boynes,Porte de Puiseaux (la),boy_por,sépulture isolée ?,2,adulte ; immature
mar_zac_1,cercueil,cecueil en bois cloué,"NB, les chiffres ""eff_sep"" sont ceux de l'article p275-276",céramique ; verrerie ; parure ; garniture de ceinture ; clous chaussure ; monnaies ; couteaux,cercueil ; bois,de volume simple,en matériau périssable cloué,couchée,indéterminé,non,oui,375,425,mobilier,Marigny-les-Usages,"ZAC Charbonnière n°3, Tranches A et B",mar_zac,"Petit ensemble funéraire
",5,adulte ; immature
mar_zac_2,coffre,coffrage de bois calé par des pierres calcaire avec couvecle cloué,"NB, les chiffres ""eff_sep"" sont ceux de l'article p275-276",verre ; pendant de ceinture (allCu) ; boucle ; outil (fer),coffrage ; bois ; calcaire,de volume simple,en matériau périssable cloué,couchée,indéterminé,non,oui,375,425,mise en phase,Marigny-les-Usages,"ZAC Charbonnière n°3, Tranches A et B",mar_zac,"Petit ensemble funéraire
",2,adolescent ; adulte
bea_gla_1,Coffrage de bois,"coffrage de bois (14 tombes), certains avec calage de pierres calcaire (4). 2 cas hypothètiques. ",Un coussin dans 3 tombes. Un linceul potetiel dans une.,"parure, garniture de ceinture, armes inégalement répartis dans 9 sépultures sur 20",,de volume simple,en matériau périssable non cloué,couchée,indéterminé,non,oui,600,810,mobilier ; carbone 14,Beaune-la-Rolande,"Glazières (Les, Les Sablons",bea_gla,Nécropole rurale (proche d'un habitat),20,adulte ; immature
mas_abb_1,sarcophage,sarcophage,sarcophage mérovingien en réemploi,bouteille à eau bénite,sarcophage : réemploi,de volume simple,sarcophage,couchée,indéterminé,non,oui,1251,1525,mise en phase ; mobilier,Massay,Abbaye Saint-Martin (la salle capitulaire),mas_abb,Cimetière monastique - salle capitulaire,10,Adulte et masculin pour les déterminés
orl_mad_1,fosse à banquettes,Banquettes creusées/taillées,Couverture de bois,aucun,banquettes ; couverture ; bois ; lambourdes ; solives,à aménagement(s) de parois,en matériau périssable non cloué,couchée,indéterminé,non,non,880,1030,carbone 14 ; stratigraphie,Orléans,Madeleine (La),orl_mad,Cimetière hospitalier,130,Adultes principalement (4 immatures contre 66 adultes)
orl_mad_2,fosse à banquettes,Banquettes creusées/taillées,alvéole céphalique,aucun,banquettes ; alvéole céphaliques ; anthropomorphe,à aménagement(s) de parois,en matériau périssable non cloué,couchée,indéterminé,oui,non,880,1020,carbone 14 ; stratigraphie,Orléans,Madeleine (La),orl_mad,Cimetière hospitalier,59,Adultes  principalement
orl_mad_3,fosse à banquettes,Banquettes maçonnées,,,banquettes ; maçonnées ; maçonnerie ; couverture ; bois ; planche,à aménagement(s) de parois,en matériau périssable non cloué,couchée,indéterminé,non,non,1010,1170,carbone 14,Orléans,Madeleine (La),orl_mad,Bas côté d'une église et parvis,3,adultes
orl_mad_4,Cercueil de plomb,Cercueil en plomb,Cercueil de bois,6 vases en céramique,Abbesse ; prestige ; caveau ; blason ; bois ; bois ; religieuse,de volume simple,en plomb,couchée,vêtements,non,oui,1477,1477,Sources textuelles ; mobilier,Orléans,Madeleine (La),orl_mad,Choeur d'église,1,Adulte (abbesse)
orl_mad_5,En fosse latérale,Cavité latérale,,aucun,cavité ; loculus,à aménagement(s) de parois,pleine terre,couchée,indéterminé,non,non,720,1014,carbone 14,Orléans,Madeleine (La),orl_mad,Cimetière hospitalier,3,2 adultes et 1 immature
orl_mad_6,Cercueil non cloué (assemblé),Cercueil,non cloué,aucun,Grande fosse ; bois ; espace vide ; asssemblage,de volume simple,en matériau périssable non cloué,couchée,indéterminé,non,non,660,1030,carbone 14,Orléans,Madeleine (La),orl_mad,Cimetière monastique ?,23,Adultes
chi_sai_1,Contenant non cloué,Cercueil rectangulaire,"chevillé, assemblé",,assemblage,de volume simple,en matériau périssable non cloué,couchée,indéterminé,non,non,693,889,carbone 14,Chinon,Saint-Mexme,chi_sai,,1,
pou_les_1,coffre chevillé,coffre chevillé,linceul,mobilier métallique,coffre ; linceul ; matériaux organiques minéralisés ; blocs calcaire,de volume simple,en matériau périssable non cloué,couchée,enveloppe souple,non,oui,-550,-350,mobilier ; radiocarbone,Poupry,Les Hernies,pou_les,nécropole,15,immature ; adulte
pou_les_2,coffre chevillé,coffre chevillé,aucune,mobilier métallique,coffre ; blocs calcaire,de volume simple,en matériau périssable non cloué,couchée,indéterminé,non,oui,-550,-350,mobilier ; radiocarbone,Poupry,Les Hernies,pou_les,nécropole,14,adulte
orl_mad_7,Cercueil de bois,Cercueil,clous pour certains (3) aucun pour d'autres (5),parure (bague) ; épingles ; agrafes ,cercueil ; cloître ; religieuses ; bois,de volume simple,en matériau périssable cloué,couchée,vêtements,non,oui,1500,1792,mobilier ; stratigraphie,Orléans,Madeleine (La),orl_mad,Cimetière monastique (cloître),8,Adultes et immatures
cha_mar_1,Cercueil de bois,Cercueil cloué,"blocs calcaires en calage du crâne (pratique funéraire, pas de lien avec l'architecture)",aucun,juifs ; ,de volume simple,en matériau périssable cloué,couchée,indéterminé,oui,non,1039,1396,carbone 14,Châteauroux,Marins (Av des.),cha_mar,Cimetière juif,22,Adultes et immatures
tav_gra_1,pleine terre,pleine terre,aucune,céramique ; armes,,de volume simple,en matériau périssable non cloué,couchée,indéterminé,non,oui,-40,-10,mobilier,Tavant,"Grande (42, rue)",tav_gra,Nécropole,1,adulte 
tav_gra_2,coffrage mixte,Assemblage de planches et de pierres,Assemblage dans la fosse,céramique,orthostats ; plancher,de volume simple,mixte,couchée,indéterminé,non,oui,40,110,mobilier,Tavant,"Grande (42, rue)",tav_gra,Nécropole,1,Immature [3-5A]
tav_gra_3,sarcophage  surmonté d'un plateau,sarcophage,plateau,créamique ; verre ; parure,sarcophage ; clous,de volume simple,mixte,couchée,indéterminé,non,oui,40,110,mobilier,Tavant,"Grande (42, rue)",tav_gra,Nécropole,3,Immature [9-15 ; 12-24 ; ?]
tav_gra_4,sarcophage,sarcophage,,céramique ; verre ; outil ; parure ; monnaie.,sarcophage,de volume simple,sarcophage,couchée,indéterminé,non,oui,40,110,mobilier,Tavant,"Grande (42, rue)",tav_gra,Nécropole,5,Immatures [6-12 ;  3-9 ; 8-16 M ; 2-4A ; ?]
tav_gra_5,Cercueil de bois,Cercueil cloué,,céramique ; verre ; chaussures.,clous,de volume simple,en matériau périssable cloué,couchée,indéterminé,non,oui,40,199,mobilier ; stratigraphie,Tavant,"Grande (42, rue)",tav_gra,Nécropole,2,"Immatures [3,5-6,5A; ?]"
tav_gra_6,Cercueil de bois,Cercueil cloué,,céramique ; verre,clous ; traces ligneuses,de volume simple,en matériau périssable cloué,couchée,indéterminé,non,oui,70,110,mobilier,Tavant,"Grande (42, rue)",tav_gra,Nécropole,3,"Immatures [6-12,  9-15 M, 1-5A]"
tav_gra_7,céramique,céramique,,céramique,céramique,de volume simple,en céramique,foetale,indéterminé,non,non,40,110,mobilier,Tavant,"Grande (42, rue)",tav_gra,Nécropole,2,Immatures [périnataux]
tav_gra_8,pleine terre,pleine terre,,"céramique, verre",pleine terre,de volume simple,pleine terre,indéterminée,indéterminé,non,oui,40,110,mobilier,Tavant,"Grande (42, rue)",tav_gra,Nécropole,3,Immatures ?
tav_gra_9,Cercueil de bois cloué,Cercueil cloué,,céramique ; verre ; monnaie ; chaussures.,clous,de volume simple,en matériau périssable cloué,couchée,indéterminé,non,oui,250,299,mobilier,Tavant,"Grande (42, rue)",tav_gra,Nécropole,4,Adultes et adolescent
sai_cou_1,coffrage en deux volumes superposés,coffrage,coffrage,céramique ; faune ; monnaie ; épingle ; base de colonne,coffrage ; clous,à aménagement(s) de parois,en matériau périssable cloué,indéterminée,indéterminé,non,oui,200,299,mobilier,Saint-Marcel,Courattes (Rue des),sai_cou,Sépulture isolée,1,Immature
sai_cou_2,Inhumation en position assise,pleine terre,,aucun,Inhumation assise,de volume simple,pleine terre,assise,indéterminé,non,non,-355,-120,carbone 14,Saint-Marcel,Courattes (Rue des),sai_cou,Sépulture ?,5,Adultes
sai_cor_1,sépulture multiple en pleine terre,pleine terre,,aucun,inhumation multiple,structure prééxistante,pleine terre,couchée,indéterminé,non,non,200,430,carbone 14,Saint-Romain-sur-Cher,Cormins (Les),sai_cor,Sépulture isolée,1,3 adultes
mon_cha_1,coffrage,coffrage,,céramiques,coffrage ; clous,de volume simple,en matériau périssable cloué,couchée,indéterminé,non,oui,100,199,mobilier,Monts,Charpraie (La),mon_cha,Sépulture isolée,1,Adulte
mai_per_1,coffrage cloué ou cercueil,Coffrage ou cercueil,,céramique ; monnaie ; parure,clous,de forme indéterminée,en matériau périssable cloué,couchée,indéterminé,non,oui,40,70,mobilier,Maillé,Perrou (Le),mai_per,sépulture isolée,1,Immature [0-3M]
mai_per_2,coffrage,coffrage,étagère et coffre ?,céramique ; miroir ; fusaïole ; faune,,de volume simple,en matériau périssable non cloué,couchée,indéterminé,non,oui,-20,20,mobilier,Maillé,Perrou (Le),mai_per,sépulture isolée,1,Adulte
cro_anc_1,céramique,céramique,,céramique ; clou,céramique,de volume simple,en céramique,couchée,indéterminé,non,non,10,299,mobilier,Crouzilles,"Ancienne Eglise (6, Rue de)",cro_anc,sépulture isolée,1,Immature [0-3M]
bou_ilo_1,fosse à banquettes,Banquettes creusées/taillées,Couverture mixte (schiste ardoisier et bois),aucun,banquettes ; couverture ; bois ; schiste ardoisier,anthropomorphe,mixte,couchée,enveloppe souple,non,non,986,1155,carbone 14 (Ly-13193),Bouchemaine,Ilot Saint-Joseph,bou_ilo,nécropole,88,adulte
fon_coc_1,couverture en matière périssable,fosse étroite avec couverture en matière périssable,,une bague/pendentif,couverture matière périssable ; fosse étroite,de volume simple,en matériau périssable non cloué,couchée,indéterminé,non,non,425,825,carbone 14 ; céramique,Fondettes,Cochardières (Les) ,fon_coc,"Petit ensemble funéraire
",3,3 adultes
fon_coc_2,coffrage en bois,couverture en matière périssable et coffrage bois ou cercueil chevillé avec ou sans calage pierre,5 avec coffrage/cercueil chevillé avéré ou très probable (dont 4 avec pierres de calage),aucun,couverture matière périssable ; fosse étroite ; coffrage bois ; cercueil chevillé ; calage de pierre,de volume simple,mixte,couchée,indéterminé,non,non,425,770,carbone 14 ; céramique,Fondettes,Cochardières (Les) ,fon_coc,"Petit ensemble funéraire
",5,"4 adultes, un immature [12-24M]"
aub_pla_1,fosse anthropomorphe,Fosse anthropomorphe,planche latérale,aucun,coffrage ; bois ; pierre ; calage,anthropomorphe,pleine terre,couchée,indéterminé,non,non,888,1015,carbone 14 (Ly-14613),Aubigné-sur-Layon,Place de l'église,aub_pla,cimetière,14,adulte ; immature
cha_hau_1,Sarcophage réutilisé,Sarcophage,Couvercle,aucun,sarcophage,de volume simple,sarcophage,couchée,vêtements,non,oui,658,773,carbone 14 (Ly-14607),Champtocé-sur-Loire,Hauts du château (les) - EHPAD,cha_hau,nécropole,22,adulte
bri_nec_1,Sarcophage,Sarcophage,Couvercle,aucun,sarcophage ; calcaire coquillier ; couvercle,de volume simple,sarcophage,couchée,vêtements,non,non,690,889,carbone 14 (Ly-15243),Brissarthe,Nécropole,bri_nec,nécropole,49,adulte ; immature
bri_nec_2,Coffrage,Coffrage,Couverture,anneau de bronze,coffrage ; couverture ; schiste ardoisier,de volume simple,en pierres,couchée,vêtements,non,oui,651,767,carbone 14 (Ly-15244),Brissarthe,Nécropole,bri_nec,nécropole,38,adulte ; immature
lou_cha_1,Coffrage,Coffrage,Calage (pierre),aucun,coffrage ; bois ; pierre ; calage,de volume simple,en matériau périssable non cloué,couchée,indéterminé,non,non,686,886,carbone 14 (Ly-9515),Louresse-Rochemenier,Chaussée (la),lou_cha,cimetière,30,adulte ; immature
pon_egl_1,pleine terre,Pleine terre,,aucun,pleine terre,de volume simple,pleine terre,couchée,enveloppe souple,non,non,724,938,carbone 14 (Ly-15104),Pontigné,Eglise Saint-Denis,pon_egl,cimetière,70,adulte ; immature
che_pie_1,coffrage de bois,coffrage avec agrafes,accompagné ou non de calages,aucun ou fibule,coffrage ; planches ; immature,de volume simple,en matériau périssable cloué,couchée,indéterminé,non,non,-270,-150,mobilier,Chevilly,Pièces de Chameul,che_pie,Nécropole,7,immatures
che_pie_2,pleine terre,aménagement interne avec une ou plusieurs planches,,aucun ou fibule et/ou parure,planche ; aménagement interne ; offrandes,de volume simple,en matériau périssable non cloué,couchée,indéterminé,non,non,-180,-70,mobilier,Chevilly,Pièces de Chameul,che_pie,Nécropole,10,Adultes (7) et immatures (3)
che_pie_3,pleine terre,pleine terre,enveloppe souple,aucun ou fibule et/ou parure ou armement,pleine terre ; enveloppe souple,de volume simple,pleine terre,couchée,enveloppe souple,non,oui,-270,-150,mobilier,Chevilly,Pièces de Chameul,che_pie,Nécropole,7,Adultes (6) et immatures (1)
che_pie_4,pleine terre,pleine terre,aucune,aucun ou fibule,pleine terre,de volume simple,pleine terre,couchée,indéterminé,non,oui,-270,-150,mobilier,Chevilly,Pièces de Chameul,che_pie,Nécropole,8,Adultes et immatures
jui_bey_1,Coffrage,Coffrage,Couverture (schiste ardoisier),aucun,coffrage ; schiste ardoisier,de volume simple,en pierres,couchée,indéterminé,non,non,775,965,carbone 14 (Ly-15999),Juigné-sur-Loire,Beyen (le),jui_bey,nécropole,114,adulte ; immature
bou_ilo_2,Coffrage,Coffrage,Couverture (schiste ardoisier),aucun,coffrage ; schiste ardoisier,de volume simple,en pierres,couchée,indéterminé,non,non,725,945,carbone 14 (Ly-14236),Bouchemaine,Ilot Saint-Joseph,bou_ilo,nécropole,5,adulte ; immature
sai_hor_1,couverture de bois,couverture de bois + 1 bloc calcaire à la tête,enveloppe souple non contraignante de type linceul,,couverture de bois ; linceul,de forme indéterminée,mixte,couchée,indéterminé,oui,non,665,879,"carbone 14 (Lyon-7149, éch. : 34307)",Saint-Marcel,Hors-les-Murs (Rue),sai_hor,Sépulture isolée,1,adulte
sou_pie_1,Cercueil de bois,Cercueil cloué,,céramique ; verre,clous,de forme indéterminée,en matériau périssable cloué,couchée,indéterminé,non,oui,200,399,mobilier,Souvigné,Pièce de la Baraterie,sou_pie,"Petit ensemble funéraire
",1,"Immature [8,5-12,5A]"
sou_pie_2,coffrage ou cercueil,Coffrage ou cercueil,,céramique,trace ligneuse,de volume simple,en matériau périssable cloué,couchée,indéterminé,non,oui,300,499,mobilier,Souvigné,Pièce de la Baraterie,sou_pie,"Petit ensemble funéraire
",1,adulte
mer_bea_1,couverture de bois,couverture de bois + 2 imbrices à la tête,chaussures cloutées ; vêtements,cruche,couverture de bois ; imbrices,de volume simple,en matériau périssable non cloué,couchée,vêtements,oui,oui,100,200,mobilier,Mer,Beaudisson,mer_bea,"Petit ensemble funéraire ; enclos funéraire
",1,adulte
bon_ter_1,coffrage en bois,coffrage matière périssable,gros fragment de tegula à plat à l'aplomb du crâne ; coussin sous tête ou thorax ; qq blocs de pierre près des têtes et contre les bords de la fosse mais pas sur le sol d'inhumation,aucun,coffrage ; coussin,de volume simple,en matériau périssable non cloué,couchée,indéterminé,non,non,670,805,carbone 14 ; céramique ; contexte,Bonnée,Terres à l'Est du Bourg,bon_ter,"Petit ensemble funéraire
",3,2 adultes ; 1 immature  [6-18M]
jou_vic_1,brancard,espace colmaté,lit funéraire,,espace colmaté ; pleine terre ; lit funéraire,de forme indéterminée,en matériau périssable cloué,couchée,indéterminé,non,non,1160,1460,stratigraphie,Joué-lès-Tours,Victor Hugo et François Mitterrand (places),jou_vic,cimetière paroissial,2,adultes
jou_vic_2,walkman,aménagement céphalique,,,aménagement céphalique,de forme indéterminée,pleine terre,couchée,indéterminé,oui,non,1020,1160,carbone 14,Joué-lès-Tours,Victor Hugo et François Mitterrand (places),jou_vic,cimetière,3,immatures
etr_oza_1,coffrage ou cercueil,Coffrage ou cercueil,,céramique,effet de paroi ; déplacement osseux,de volume simple,en matériau périssable non cloué,couchée,indéterminé,non,oui,-30,20,mobilier,Etrechet,Ozans (ZAC d') - Fets de Renier,etr_oza,Sépulture isolée,1,Immature [2-8M]
ave_che_1,coffrage mixte,céramique,blocs calcaires,céramique,céramique ; blocs calcaire,de volume simple,mixte,indéterminée,indéterminé,non,non,250,350,mobilier,Averdon,Chemin 1,ave_che,"Petit ensemble funéraire
",2,Immatures
ave_che_2,coffrage de pierre,blocs calcaires,,céramique,céramique ; blocs calcaire,de volume simple,en pierres,indéterminée,indéterminé,non,non,250,350,mobilier,Averdon,Chemin 1,ave_che,"Petit ensemble funéraire
",1,Immature 
ave_che_3,urne,céramique,blocs calcaires,céramique,céramique ; blocs calcaire,de volume simple,en céramique,indéterminée,indéterminé,non,non,250,350,mobilier,Averdon,Chemin 1,ave_che,"Petit ensemble funéraire
",1,Immature 
cro_anc_2,sarcophage,sarcophage trapézoïdal,,aucun,sarcophage,de volume simple,sarcophage,couchée,indéterminé,non,non,500,999,sarcophage,Crouzilles,Ancienne Eglise,cro_anc,cimetière,24,adulte ; immature
cro_anc_3,pleine terre,pleine terre,,aucun,pleine terre,de volume simple,pleine terre,couchée,indéterminé,non,non,500,999,contexte,Crouzilles,Ancienne Eglise,cro_anc,cimetière,3,adulte ; immature
sai_cor_2,sarcophage,sarcophage trapézoïdal bi partite,,aucun,sarcophage,de volume simple,sarcophage,couchée,vêtements,non,oui,500,1020,sarcophage,Saint-Romain-sur-Cher,Cormins (Les),sai_cor,cimetière,1,adulte
sai_cor_3,coffrage ou cercueil,coffrage ou cercueil,blocs calcaires,aucun,coffrage,de volume simple,en matériau périssable non cloué,couchée,vêtements,non,oui,770,1299,carbone 14 ; contetxe,Saint-Romain-sur-Cher,Cormins (Les),sai_cor,cimetière,27,adultes
jou_vic_3,fosse à banquette,Banquettes creusées/taillées,,,banquettes,à aménagement(s) de parois,en matériau périssable non cloué,couchée,indéterminé,non,non,650,1460,stratigraphie,Joué-lès-Tours,Victor Hugo et François Mitterrand (places),jou_vic,cimetière paroissial?,3,adultes
sai_cor_4,pleine terre,pleine terre,,aucun,pleine terre,de volume simple,pleine terre,couchée,indéterminé,non,non,980,1199,contexte,Saint-Romain-sur-Cher,Cormins (Les),sai_cor,cimetière,2,adultes
bou_ilo_3,Couvercle en matière périssable,Fosse avec couvercle en matière périssable,Couverture (bois),aucun,couverture ; bois,de forme indéterminée,en matériau périssable non cloué,couchée,indéterminé,non,non,1019,1058,carbone 14 (Ly-14392),Bouchemaine,Ilot Saint-Joseph,bou_ilo,nécropole,6,adulte ; immature
bou_ilo_4,fosse à banquettes,Banquettes creusées/taillées,"Couverture (schiste ardoisier et/ou bois) ; aménagement cépahlique (schiste ardoisier, terre architecturale)",aucun,banquettes ; couverture ; bois ; schiste ardoisier ; terre architecturale; aménagement céphalique,à aménagement(s) de parois,mixte,couchée,indéterminé,oui,non,986,1222,carbone 14 (Ly-13193 / Ly-14391),Bouchemaine,Ilot Saint-Joseph,bou_ilo,nécropole,28,adulte ; immature
jou_vic_4,coffrage en bois avec calage,trace ligneuse ; effets de parois,calage de pierre,,espace vide ; traces ligneuses,de volume simple,mixte,couchée,indéterminé,non,non,670,1160,carbone 14 ; stratigraphie,Joué-lès-Tours,Victor Hugo et François Mitterrand (places),jou_vic,cimetière,27,tous âges
ang_sai_1,fosse à banquettes,Banquettes creusées/taillées,Couverture (schiste ardoisier et/ou bois) ; aménagement cépahlique,aucun,banquettes ; couverture ; schiste ardoisier ; bois ; aménagement céphalique,anthropomorphe,mixte,couchée,vêtements,oui,non,977,1154,carbone 14 (Ly-16894 / Ly-16895),Angers,"Saint-Aubin, centre d'activités Foch",ang_sai,cimetière,9,adulte
ang_sai_2,Sarcophage,Sarcophage,Couvercle ; aménagement céphalique,aucun,sarcophage ; calcaire coquillier ; couvercle ; schiste ardoisier ; aménagement céphalique,de volume simple,sarcophage,couchée,indéterminé,oui,non,901,1030,carbone 14 (Ly-16893),Angers,"Saint-Aubin, centre d'activités Foch",ang_sai,nécropole,1,adulte
ang_sai_3,coffrage maçonné,Coffrage maçonné,Couverture (schiste ardoisier et/ou bois) ; aménagement céphalique,claveau roman en réemploi pour logette céphalique,coffrage ; couverture ; schiste ardoisier ; tuffeau ; couverture ; arkose ; aménagement céphalique,de volume simple,en pierres,couchée,indéterminé,oui,non,982,1047,carbone 14 (Ly-16892),Angers,"Saint-Aubin, centre d'activités Foch",ang_sai,nécropole,17,adulte
jou_vic_5,coffrage maçonné,coffrage maçonné,,,coffrage,de forme indéterminée,en pierres,couchée,indéterminé,oui,non,1220,1280,carbone 14,Joué-lès-Tours,Victor Hugo et François Mitterrand (places),jou_vic,église,2,adultes
ang_sai_4,coffrage en bois,effet de paroi ; calage,Couverture (bois),aucun,coffrage ; couverture ; bois,de volume simple,en matériau périssable non cloué,couchée,vêtements,non,non,655,779,carbone 14 (Ly-16891 / Ly-16914),Angers,"Saint-Aubin, centre d'activités Foch",ang_sai,nécropole,10,adulte
jou_vic_6,contenant cloué,cercueil,,,bois ; clous,de volume simple,en matériau périssable cloué,couchée,enveloppe souple,non,non,1160,1775,carbone 14,Joué-lès-Tours,Victor Hugo et François Mitterrand (places),jou_vic,cimetière paroissial/église,51,tous âges
jou_vic_7,linceul,enveloppe souple,épingles en alliage cuivreux,,épingles,de volume simple,pleine terre,couchée,enveloppe souple,non,non,1460,1775,stratigraphie,Joué-lès-Tours,Victor Hugo et François Mitterrand (places),jou_vic,cimetière paroissial/église,17,adultes
ang_sai_5,Coffrage,Coffrage mixte schiste ardoisier et bois,Couverture (bois),aucun,coffrage ; couverture ; bois ; schiste ardoisier,de volume simple,mixte,couchée,enveloppe souple,non,oui,669,893,carbone 14 (Ly-16888/Ly-16889),Angers,"Saint-Aubin, centre d'activités Foch",ang_sai,nécropole,25,adulte ; immature
blo_cup_1,linceul,Linceul,Pleine terre?,monnaie?,linceul ; épingle ; monnaie ,de volume simple,pleine terre,couchée,enveloppe souple,non,oui,800,1300,contexte ; mobilier,Blois,Cuper (Rue),blo_cup,tombe isolée,1,immature
tru_vig_1,coffrage,coffrage ; calage,aménagement céphalique ; pierres de calage d'un coffre?,aucun,coffrage ; aménagement céphalique,de volume simple,mixte,couchée,indéterminé,oui,non,688,887,carbone 14,Truyes,"Vignes de Saint-Blaise (Les), Tour Carrée (La)",tru_vig,tombe isolée,2,adulte probable
blo_des_1,cercueil,cercueil décoré,linceul,clous de cercueil ; clous décoratifs en bronze,cercueil ; linceul ; clous ; ornementation du cercueil,de volume simple,en matériau périssable cloué,couchée,enveloppe souple,non,non,1800,1857,mobilier,Blois,"Desfray (3 à 9, avenue)",blo_des,cimetière,22,adolescent
blo_des_2,cercueil,cercueil ,,clous de cercueil ; clous décoratifs en bronze,cercueil ; clous ; réduction ; sépulture double,de volume simple,en matériau périssable cloué,couchée,indéterminé,non,non,1600,1857,archives,Blois,"Desfray (3 à 9, avenue)",blo_des,cimetière,22,adultes
sue_mar_1,coffrage,"coffrage mixte (bois, pierre, terre cuite)",,ceramique,coffrage mixte ; pierre ; tuile,de volume simple,mixte,couchée,indéterminé,non,non,500,1000,mobilier,Suèvres,Marais de la Prasle (Le),sue_mar,nécropole,62,adulte jeune
cha_sai_2,coffrage,pierre de calage,espace vide ; effet de parois,,mixte ; calage,de forme indéterminée,mixte,couchée,indéterminé,oui,non,1020,1190,carbone 14,Châteauroux,Saint-Christophe (place),cha_sai,cimetière paroissial,9,adultes
sue_mar_2,coffrage en bois et calage,effet de paroi ; calage,linceul?,,coffrage ; pierre de calage ; effet de paroi,de volume simple,en matériau périssable non cloué,couchée,indéterminé,non,non,228,440,carbone 14,Suèvres,Marais de la Prasle (Le),sue_mar,nécropole,62,immature
sue_mar_3,coffre ou cercueil,coffre ou cercueil,linceul?,clous,coffre ; cercueil ; clou,de volume simple,en matériau périssable cloué,couchée,enveloppe souple,non,non,237,441,carbone 14,Suèvres,Marais de la Prasle (Le),sue_mar,nécropole,62,adulte
sue_cha_1,coffre ou cercueil,coffre ou cercueil,,clous de cercueil ; restes de chaussure ; gobelet ; pierre,coffre ; cercueil ; clou ; gobelet,de volume simple,en matériau périssable cloué,couchée,indéterminé,non,oui,150,400,mobilier,Suèvres,Châteliers (Les),sue_cha,nécropole,14,adulte
sue_cha_2,vase-cercueil,vase-cercueil,linceul?,céramique,vase-cercueil ; ceramique ; enchytrisme,de forme indéterminée,en céramique,foetale,indéterminé,non,non,150,350,mobilier,Suèvres,Châteliers (Les),sue_cha,nécropole,9,immature
vou_gar_1,coffrage anthropomorphe,coffrage,linceul?,,coffrage maçonnée ; loge céphalique ; couvercle,anthropomorphe,en pierres,couchée,indéterminé,non,non,1100,1600,contexte,Vouillon,"Garenne (6, chemin de la)",vou_gar,cimetière,11,adulte
sor_tha_1,pleine terre,pleine terre,enveloppe périssable possible,,espace colmaté ; pleine terre ; sépulture multiple,de volume simple,pleine terre,foetale,indéterminé,non,non,-4515,-4357,carbone 14,Sorigny,Thais,sor_tha,ensemble funéraire?,3,adulte ; immature
cha_sai_3,enveloppe souple,espace de décomposition mixte,effet de contraintes,,linceul,de volume simple,pleine terre,couchée,enveloppe souple,non,non,1030,1210,contexte,Châteauroux,Saint-Christophe (place),cha_sai,cimetière paroissial,6,adultes ; immature
sai_log_1,fosse anthropomorphe,creusement anthropomorphe,banquettes,,anthropomorphe ; céphalique ;banquette,anthropomorphe,en matériau périssable non cloué,couchée,indéterminé,non,non,1315,1355,carbone 14,Sainte-Lizaigne,Loge de Vigne (le bourg - la),sai_log,aire funéraire,1,adolescent
jou_deb_1,cercueil cloué,contenant bois,clous en fer,,clous ; poignées de cercueil,de volume simple,en matériau périssable cloué,couchée,indéterminé,non,non,1682,1930,carbone 14,Joué-lès-Tours,Debrou (rue),jou_deb,cimetière paroissial,1,adultes ; immatures
leb_lib_2,emmaillotement ,épingles en alliage cuivreux,,,épingles,de forme indéterminée,pleine terre,couchée,enveloppe souple,non,non,1414,1479,carbone 14,Le Blanc,Libération (place de la),leb_lib,cimetière paroissial,6,adultes ; périnatal
blo_pon_1,architecture mixte,espace vide,pierres de calage ; sédiments différentiels,,calage ; espace vide,de volume simple,mixte,couchée,indéterminé,non,non,646,766,carbone 14,Blois,"Ponts Chartrain (13 bis, rue des)",blo_pon,tombe isolée,1,adulte
ven_fau_1,cercueil cloué,bois ; clous,espace vide,,clous,de volume simple,en matériau périssable cloué,couchée,indéterminé,non,non,1645,1834,carbone 14,Vendôme,Faubourg Chartrain,ven_fau,cimetière,18,tous âges
ven_fau_2,sépulture encensée,,,vase à encens,vase ; encens,de forme indéterminée,indéterminé,indéterminée,indéterminé,non,oui,1435,1615,carbone 14,Vendôme,Faubourg Chartrain,ven_fau,cimetière,2,adulte ; périnatal
sai_let_1,pleine terre,pleine terre,,céramique,pleine terre,de volume simple,pleine terre,couchée,indéterminé,non,oui,800,900,"mobilier, stratigraphie",Saint-Gervais-la-Forêt,Le Tertre,sai_let,tombe isolée,1,adulte?
mai_vil_1,"coffrage, linceul",coffrage,linceul,,coffrage,de volume simple,en matériau périssable cloué,couchée,enveloppe souple,non,non,800,1000,contexte,Maillé,Villiers et la Roche,mai_vil,tombe isolée,1,immature (F1319)
mai_vil_2,"cercueil, linceul",cercueil,linceul,,cercueil,de volume simple,en matériau périssable cloué,couchée,enveloppe souple,non,non,685,885,carbone 14,Maillé,Villiers et la Roche,mai_vil,tombe isolée,1,immature (F1366)
mai_vil_3,"coffrage, linceul",coffrage,linceul,céramique,coffrage,de volume simple,en matériau périssable cloué,couchée,enveloppe souple,non,oui,0,500,stratigraphie,Maillé,Villiers et la Roche,mai_vil,tombe isolée,1,adulte (F1470)
mai_vil_4,Cercueil ou coffrage en bois,cercueil ou coffrage,,armature de flèche lithique,cercueil,de volume simple,en matériau périssable cloué,couchée,indéterminé,non,oui,687,879,carbone 14,Maillé,Villiers et la Roche,mai_vil,petit ensemble funéraire,2,adulte (F3271 H? F3272 F?)
mai_vil_5,Cercueil ou coffrage en bois,cercueil ou coffrage,,,cercueil,de volume simple,en matériau périssable cloué,couchée,indéterminé,non,non,665,866,carbone 14,Maillé,Villiers et la Roche,mai_vil,tombe isolée,1,immature (F3491)
mai_vil_6,"cercueil, linceul",cercueil,linceul,,cercueil,de volume simple,en matériau périssable cloué,couchée,enveloppe souple,non,non,255,433,carbone 14,Maillé,Villiers et la Roche,mai_vil,tombe isolée,1,immature (F3342)
mai_vil_7,linceul,linceul,,,linceul,de volume simple,pleine terre,couchée,enveloppe souple,non,non,900,1099,stratigraphie,Maillé,Villiers et la Roche,mai_vil,tombe isolée,2,immature (F3539)
mai_vil_8,"pleine terre, relégation",,,"céramique, fer, TCA, torchis","pleine terre, relégation",de volume simple,pleine terre,couchée,indéterminé,non,oui,581,661,carbone 14,Maillé,Villiers et la Roche,mai_vil,tombe isolée,1,adulte (F4166)
deo_car_1,sarcophage,sarcophage monolithe anthropomorphe,,,"sarcophage, réduction",de volume simple,sarcophage,couchée,indéterminé,oui,non,1000,1299,stratigraphie,Déols,Carnot et Lafayette (places),deo_car,cimetière paroissial,1,indéterminé
deo_car_2,coffrage,coffrage,,"céramique, TCA",coffrage,de volume simple,en matériau périssable cloué,couchée,indéterminé,non,oui,1000,1160,carbone 14,Déols,Carnot et Lafayette (places),deo_car,cimetière paroissial,1,adulte (F19)
deo_car_3,"cercueil, coffrage clouté","cercueil, coffrage clouté",,céramique,"cercueil, coffrage clouté",de volume simple,en matériau périssable cloué,couchée,indéterminé,non,oui,1100,1399,mobilier,Déols,Carnot et Lafayette (places),deo_car,cimetière paroissial,1,immature (F3)
deo_car_4,"coffrage clouté, linceul",coffrage clouté,linceul,"épingle de linceul, bague","coffrage, linceul",de volume simple,en matériau périssable cloué,couchée,enveloppe souple,non,oui,1700,1899,mobilier,Déols,Carnot et Lafayette (places),deo_car,cimetière paroissial,1,adulte (F14)
sou_fri_1,coffrage de bois,coffrage de bois,,"céramique, vase en verre, parure (bracelets, garniture de ceinture...), peigne, armes, outil. Chaussure","coffrage de bois, calage de pierres",de volume simple,en matériau périssable cloué,couchée,indéterminé,non,oui,376,900,mobilier ; carbone 14,Sours,Friches de Flauville,sou_fri,nécropole,37,adultes ; immatures
deo_gra_1,en auge,contenant monoxylique ?,,,monoxyle ?,structure prééxistante,en matériau périssable non cloué,couchée,indéterminé,non,non,720,890,carbone 14,Déols,Grand Brelay (le),deo_gra,tombe en contexte d'habitat,1,adultes
blo_alb_1,enchytrismos,vase-cercueil,étagère en bois ; cairn,,"vase-cercueil, bois, pierre",de forme indéterminée,en céramique,indéterminée,indéterminé,non,oui,75,150,mobilier,Blois,"Albert Ier (32, rue)",blo_alb,petit ensemble funéraire,2,périnatals
sai_egl_1,En fosse,Sépulture en fosse,"sans fond, sans parois, couverture de planche",,planches,de volume simple,en matériau périssable non cloué,couchée,indéterminé,non,non,1150,1500,carbone 14 ; stratigraphie,Saint-Bauld,Eglise,sai_egl,cimetière paroissial,3,adultes
sai_egl_2,Contenant en bois,Caisse en planches 6 côtés,,,planches,de volume simple,en matériau périssable non cloué,couchée,indéterminé,non,non,1500,1750,carbone 14 ; stratigraphie,Saint-Bauld,Eglise,sai_egl,cimetière paroissial,4,adultes ; immatures
lac_pie_1,coffrage en bois,coffrage,"réutilisation four domestique abandonné, pierres de calage à la tête",,four ; calage de pierres,structure prééxistante,en matériau périssable non cloué,couchée,indéterminé,oui,non,800,1000,mobilier,La Croix en Touraine,Pièce du thé (la),lac_pie,tombe en contexte d'habitat,1,adultes
noy_boi_1,coffrage de bois,coffrage de bois,petits blocs de calage,"céramique, verre","coffrage, ceramique, verre",de volume simple,en matériau périssable non cloué,couchée,indéterminé,non,oui,300,399,mobilier,Noyant-de-Touraine,Bois du Marais,noy_boi,cimetière paroissial,11,adultes ; immatures
lig_rou_1,Espace confiné,Sépulture double dans silo récupéré,silo partiellement comblé au moment de l'inhumation,perle,silo,structure prééxistante,pleine terre,couchée,indéterminé,non,oui,-1800,-700,mobilier,Ligueil,Route Départementale 31,lig_rou,tombe isolée ?,2,IM3
lig_mou_1,tumulus,dépôt sous tumulus,espace confiné ?,,tumulus ; fossé circulaire ; fosse centrale,de volume simple,en tumulus,foetale,indéterminé,non,non,-4300,-4200,C14,Ligueil,Moulin d'Epigny (le),lig_mou,tombe isolée ?,1,adultes
ver_fou_1,en auge,contenant monoxylique ?,,,monoxyle ?,de volume simple,en matériau périssable non cloué,couchée,indéterminé,non,non,600,800,mobilier,Vernou-sur-Brenne,Foujoin,ver_fou,tombe en contexte d'habitat,1,IM2
ver_fou_2,Aménagement de paroi,planches sur côté et de couverture mais pas de fond,,,planches,de volume simple,en matériau périssable non cloué,couchée,indéterminé,non,non,600,1000,carbone 14 ; stratigraphie,Vernou-sur-Brenne,Foujoin,ver_fou,tombe en contexte d'habitat,7,adultes ; immatures
ver_fou_3,Contenant en bois,Caisse en planches 6 côtés,,,planches,de volume simple,en matériau périssable non cloué,couchée,indéterminé,non,non,620,1000,carbone 14 ; mobilier ; contexte,Vernou-sur-Brenne,Foujoin,ver_fou,tombe en contexte d'habitat,6,adultes ; immatures
ver_fou_4,en fosse position contrainte,"sépulture en fosse, espace confiné ?, fosse trop courte pour loger le corps, jambes repliées",,,,de volume simple,en matériau périssable non cloué,couchée,indéterminé,non,non,780,970,carbone 14,Vernou-sur-Brenne,Foujoin,ver_fou,tombe en contexte d'habitat,2,adultes
ric_pot_1,coffrage mixte,coffrage ,bois et pierres,"fibules, perles","bois, dalles, parure, habillement, espace vide",structure prééxistante,pleine terre,foetale,indéterminé,non,non,600,699,contexte,Richelieu,Poteau (Le),ric_pot,cimetière  ,5,adultes et immature
ver_fou_5,Aménagement de paroi,planches sur côté et de couverture mais pas de fond,pierres de calage,,moellons ; calcaire ; planches,de volume simple,mixte,couchée,vêtements,non,oui,600,1000,mobilier,Vernou-sur-Brenne,Foujoin,ver_fou,tombe en contexte d'habitat,2,immatures
ver_fou_6,coffrage composite,coffrage de bois avec tour complet de pierres,pas de fond,,moellons ; calcaire ; planches,de volume simple,mixte,couchée,indéterminé,non,non,850,1000,carbone 14 ; mobilier,Vernou-sur-Brenne,Foujoin,ver_fou,tombe en contexte d'habitat,2,immatures
can_bou_1,Aménagement de paroi,planches sur côté et de couverture mais pas de fond,pierres de calage,,moellons ; calcaire ; planches,à aménagement(s) de parois,mixte,couchée,indéterminé,non,non,1100,1500,carbone 14 ; stratigraphie,Candes-Saint-Martin,Bourg (le),can_bou,cimetière paroissial,4,adultes
can_bou_2,coffrage en moellons maçonnés,type de logette indet,"sans fond, couverture de dalle",,moellons ; calcaire ; mortier ; dalles,de volume simple,mixte,couchée,indéterminé,non,non,1100,1350,carbone 14 ; stratigraphie,Candes-Saint-Martin,Bourg (le),can_bou,cimetière paroissial,10,adultes ; indéterminés
can_bou_3,Sarcophage,Sarcophage monolithique en calcaire,,,sarcophage ; calcaire,de volume simple,sarcophage,couchée,indéterminé,oui,oui,600,800,carbone 14 ; stratigraphie,Candes-Saint-Martin,Bourg (le),can_bou,tombe en contexte d'habitat,17,adultes ; immatures ; indéterminés
tou_sai_1,"En fosse, Espace confiné ?",En fosse avec linceul,Pas de couverture ?,,,de volume simple,pleine terre,couchée,enveloppe souple,non,non,1550,1625,carbone 14 ; stratigraphie,Tours,Saint-Libert,tou_sai,"cimetière ""privé"" protestant ?",22,adultes ; immatures
tou_sai_2,Brancard ?,En fosse avec planche sous-jacente,Pas de couverture ?,,planches,de volume simple,en matériau périssable non cloué,couchée,indéterminé,non,non,1550,1625,carbone 14 ; stratigraphie,Tours,Saint-Libert,tou_sai,"cimetière ""privé"" protestant ?",3,adultes ; immature
tou_sai_3,caisse en bois,Coffrage ou cercueil,,,planches,de volume simple,en matériau périssable non cloué,couchée,indéterminé,non,non,1550,1625,carbone 14 ; stratigraphie,Tours,Saint-Libert,tou_sai,"cimetière ""privé"" protestant ?",3,adultes ; immature
tou_sai_4,Aménagement de paroi,Sépulture en fosse aux parois coffrées de planches,sans fond ni couverture,,planches,de volume simple,en matériau périssable non cloué,couchée,indéterminé,non,non,1550,1625,carbone 14 ; stratigraphie,Tours,Saint-Libert,tou_sai,"cimetière ""privé"" protestant ?",3,adultes
ric_pot_2,coffrage,coffrage,pierres/dalles de calage,,"bois, espace vide",de volume simple,en matériau périssable non cloué,couchée,indéterminé,non,non,600,699,mobilier,Richelieu,Poteau (Le),ric_pot,Cimetière,9,adultes ; immatures
ric_pot_3,sarcophage,sarcophage,trapézoïdal,,"cuve, couvercle, réutilisation",de volume simple,en matériau périssable non cloué,couchée,indéterminé,non,non,500,699,contexte,Richelieu,Poteau (Le),ric_pot,Cimetière,4,adultes ; immatures
cro_abo_1,sarcophage,sarcophage,trapézoïdal,,cuve ,de volume simple,sarcophage,couchée,indéterminé,non,non,690,900,contexte,Crouzilles,Abords de l'église,cro_abo,Cimetière,6,adultes
cro_abo_2,blocs latéral,blocs latéral crâne et pieds,couverture de bois,,"couverture, bois, tasseaux",de volume simple,mixte,couchée,indéterminé,non,non,990,1160,carbone 14,Crouzilles,Abords de l'église,cro_abo,Cimetière,3,adultes
lar_pri_4,En fosse,Sépulture en fosse,sans fond ni parois,,,à aménagement(s) de parois,en matériau périssable non cloué,couchée,indéterminé,non,non,1100,1480,carbone 14 ; stratigraphie,La Riche,Prieuré Saint-Cosme,lar_pri,Cimetière monastique - cloître,147,adultes ; immature
sai_pal_1,coffre ou cercueil,coffre ou cercueil,charnières ou ferrures,"1 coupe Menez 130 en terra nigra, 1 cruche, 1 balsamaire en verre, 1 monnaie d'Auguste à l'autel de Lyon",coffre ; ferrures,de volume simple,en matériau périssable non cloué,couchée,indéterminé,non,non,-15,50,mobilier,Saint-Marcel,"Palais, ensemble funéraire du Rio",sai_pal,petit ensemble funéraire,1,immature (os non conservés)
sai_pal_2,Cercueil ou coffrage en bois,"cercueil, coffrage clouté",2 galets le long d'1 paroi longitudinale,"2 coupelles Drag.27b, 1 gobelet, 1 biberon ou tire lait (petits modules, sur couvercle), 1 as de Tibère à l'autel de Lyon, 1 anneau en fer (""à langer"" ?)",,de volume simple,en matériau périssable non cloué,indéterminée,indéterminé,non,oui,40,100,mobilier,Saint-Marcel,"Palais, ensemble funéraire du Rio",sai_pal,petit ensemble funéraire,1,"immature, - de 1 an ? (os non conservés)"
iss_cha_1,cercueil,Cercueil cloué,,mobilier,"clous, espace vide trapézoïdal",de volume simple,en matériau périssable cloué,indéterminée,indéterminé,non,oui,1700,1823,"stratigraphie, mobilier",Issoudun,Champs-Elysées (Les),iss_cha,Cimetière paroissial,10,"adultes, immatures"
lar_pri_5,En fosse couverte,Sépulture en fosse,sans fond ni parois mais couverture de planche soutenues par des traverses posées sur des pierres latérales,,planches ; dés de pierre,de volume simple,en matériau périssable cloué,couchée,indéterminé,non,oui,1150,1480,carbone 14 ; stratigraphie,La Riche,Prieuré Saint-Cosme,lar_pri,Cimetière monastique - cloître,4,adultes ; immatures
lar_pri_6,Aménagement de paroi,Sépulture en fosse aux parois coffrées de planches,sans fond mais couverture de planches,,planches,de volume simple,mixte,couchée,indéterminé,non,non,1100,1480,carbone 14 ; stratigraphie,La Riche,Prieuré Saint-Cosme,lar_pri,Cimetière monastique - cloître,46,adultes ; immatures
lar_pri_7,cercueil trapézoïdal,"Caisse en planches clouées, 6 côtés",trapézoïdal,,planches ; clous,à aménagement(s) de parois,en matériau périssable non cloué,couchée,indéterminé,non,non,1480,1740,carbone 14 ; stratigraphie,La Riche,Prieuré Saint-Cosme,lar_pri,Cimetière monastique - cloître,7,adultes
lar_pri_8,cercueil,"Caisse en planches clouées, 6 côtés",rectangulaire,,planches ; clous,de volume simple,en matériau périssable cloué,couchée,indéterminé,non,oui,1480,1740,carbone 14 ; stratigraphie,La Riche,Prieuré Saint-Cosme,lar_pri,Cimetière monastique - cloître,6,adultes
lar_pri_9,Contenant en bois,Caisse en planches 6 côtés,,,planches,de volume simple,en matériau périssable cloué,couchée,indéterminé,non,oui,1100,1740,carbone 14 ; stratigraphie,La Riche,Prieuré Saint-Cosme,lar_pri,Cimetière monastique - cloître,50,adultes ; immatures
iss_cha_2,fosse multiple,fosse large et profonde,,,"épidémie, pleine terre",de volume simple,en matériau périssable non cloué,couchée,indéterminé,non,non,1651,1798,"stratigraphie, mobilier",Issoudun,Champs-Elysées (Les),iss_cha,cimetière paroissial,14,adultes ; immatures
tou_mar_1,cercueil,cercueil,cloué,crucifix ; médailles,"bois, plâtre, décoration, religieux",de volume simple,pleine terre,couchée,indéterminé,non,non,1888,1989,"mobilier, stratigraphie, textes",Tours,Marmoutier (Abbaye),tou_mar,Cimetière de religieuses,4,adultes
lan_bez_1,sépulture en vase,vase-cercueil,,,"céramique, périnatal",de volume simple,en matériau périssable cloué,couchée,vêtements,non,oui,35,377,mobilier,Langeais,Béziaux (les),lan_bez,habitat,17,périnataux
chi_sai_2,coffrage doublant un cercueil,coffrage,cercueil cloué ou chevillé,"dallée gravée, céramqiue","coffrage, cercueil",structure prééxistante,en matériau périssable cloué,foetale,indéterminé,non,non,1100,1400,,Chinon,Saint-Mexme,chi_sai,Edifice religieux,3,non précisé
hui_mai_1,coffrage en moellons calcaire,coffrage en moellons calcaire,,,coffre ; calcaire,de volume simple,mixte,couchée,indéterminé,non,oui,1016,1154,carbone 14,Huismes,Mairie (place de la),hui_mai,cimetière paroissial,3,adultes
hui_mai_2,paroi empierrée,rangées latéralesde blocs calcaires,espace vide,,blocs calcaires ; espace vide,à aménagement(s) de parois,en matériau périssable non cloué,couchée,indéterminé,non,non,664,770,carbone 14,Huismes,Mairie (place de la),hui_mai,petit ensemble funéraire,1,adulte
por_bar_1,coffre cloué,clous,sédimentation différentielle,,clous,à aménagement(s) de parois,en matériau périssable non cloué,couchée,indéterminé,non,non,550,650,carbone 14 ; mobilier,Ports,Barrage (le),por_bar,petits ensembles funéraires,5,adultes ; immatures
por_bar_2,coffrage en bois,blocs de calage,banquette,,blocs ; banquette,de volume simple,en matériau périssable cloué,indéterminée,indéterminé,non,non,350,540,carbone 14,Ports,Barrage (le),por_bar,petits ensembles funéraires,5,adultes ; immature
por_bar_3,coffre chevillé,sédimentation différentielle,planche,,bois,à aménagement(s) de parois,en matériau périssable non cloué,couchée,indéterminé,non,oui,350,650,contexte,Ports,Barrage (le),por_bar,petits ensembles funéraires,1,immature
por_bar_4,coffrage en tuiles,panneaux de tête et de pieds en tegula,,,tuile ; tegulae,de volume simple,en matériau périssable non cloué,couchée,indéterminé,non,non,350,650,contexte,Ports,Barrage (le),por_bar,petits ensembles funéraires,1,immature
por_bar_5,coffrage en bois,blocs,effets de parois ; espace vide,oui,bois ; banquette,de volume simple,mixte,indéterminée,indéterminé,non,non,0,300,mobilier,Ports,Barrage (le),por_bar,petits ensembles funéraires,3,adulte ; indéterminés
por_bar_6,couverture en pierres,blocs lithiques,coffrage,oui,blocs ; bois ; couverture ; coffrage,à aménagement(s) de parois,en matériau périssable non cloué,couchée,indéterminé,non,oui,100,200,mobilier,Ports,Barrage (le),por_bar,petits ensembles funéraires,1,immature
por_bar_7,fosse à banquettes,creusement en banquette,,oui,banquette,à aménagement(s) de parois,en matériau périssable non cloué,couchée,indéterminé,non,oui,75,250,mobilier,Ports,Barrage (le),por_bar,petits ensembles funéraires,2,immature ; indéterminé
sai_car_1,coffrage de bois ou mixte ?,coffrage ou couverture de bois ?,"pierres de chant sur 2 niveaux : ""calage"" ?",,pierres calcaires ; bois,à aménagement(s) de parois,mixte,couchée,enveloppe souple,non,oui,780,970,Carbone 14 (Beta 342357),Saint-Marcel,Carroir (Rue du),sai_car,petit ensemble funéraire,1,adulte
sai_car_2,coffrage de bois ou mixte ?,coffrage ou couverture de bois ?,"pierres de chant sur 2 niveaux : ""calage"" ?",,pierres calcaires ; bois,de volume simple,mixte,couchée,indéterminé,non,non,900,1020,Carbone 14 (Beta 342355),Saint-Marcel,Carroir (Rue du),sai_car,petit ensemble funéraire,1,adulte
tou_dam_1,cercueil cloué,clous ; traces de bois,,"bouteille en verre (sep 22) ; pot décoré à l'éponge (sep 27, + chaussures cloutées)",,de volume simple,mixte,couchée,indéterminé,non,non,300,400,mobilier,Tours,Dames Blanches (ancienne clinique des),tou_dam,petit ensemble funéraire,2,adultes
tou_dam_2,cercueil cloué,clous (25),,chaussures cloutées,,de volume simple,en matériau périssable cloué,couchée,indéterminé,non,oui,128,323,carbone 14 (Poz-39754),Tours,Dames Blanches (ancienne clinique des),tou_dam,petit ensemble funéraire,1,adulte
tou_dam_3,cercueil cloué,clous (14) ; traces de bois,,,,de volume simple,en matériau périssable cloué,couchée,indéterminé,non,oui,256,420,carbone 14 (Poz-39756),Tours,Dames Blanches (ancienne clinique des),tou_dam,petit ensemble funéraire,1,adulte
tou_dam_4,cercueil chevillé ou coffrage ?,traces de bois,"contenant de très grandes dimensions (L cons : 2,65m, l : 1,16m)","chaussures cloutées, verreries (gobelet, cruche, coupe)",contenant ostentatoire,de volume simple,en matériau périssable cloué,couchée,indéterminé,non,non,300,420,mobilier,Tours,Dames Blanches (ancienne clinique des),tou_dam,petit ensemble funéraire,1,adulte
tou_dam_5,coffrage de bois ?,quelques clous,,"sep 4 : verreries (gobelet, pot, coupe) ; sep 28 : 1 monnaie de 323 et 1 de 327 ap.",,de volume simple,en matériau périssable non cloué,couchée,indéterminé,non,oui,300,400,mobilier,Tours,Dames Blanches (ancienne clinique des),tou_dam,petit ensemble funéraire,2,adultes
tou_dam_6,coffrage de bois,décomposition en espace vide,,,,de volume simple,en matériau périssable cloué,couchée,indéterminé,non,oui,255,433,carbone 14 (Poz-39755) et proximité,Tours,Dames Blanches (ancienne clinique des),tou_dam,petit ensemble funéraire,3,adultes
tou_dam_7,coffrage de bois et blocs calcaires,alignement de blocs sur les longs côtés de la sep,,,,de volume simple,en matériau périssable non cloué,couchée,indéterminé,non,non,258,425,carbone 14 (Poz-39758),Tours,Dames Blanches (ancienne clinique des),tou_dam,petit ensemble funéraire,1,enfant (4-6 ans)
tou_dam_8,coffrage de bois et blocs calcaires,coffrage de bois et blocs calcaires,,,,de volume simple,en matériau périssable non cloué,couchée,indéterminé,non,non,900,1100,mobilier céramique comblement,Tours,Dames Blanches (ancienne clinique des),tou_dam,sep urbaines dispersées,1,adulte
bar_mou_1,pleine terre,décomposition en espace colmaté,enveloppe souple de type linceul,,inh périnatal en contexte domestique,de volume simple,en matériau périssable non cloué,couchée,indéterminé,non,non,100,300,mobilier céramique comblement + contexte,Barrou,Moulin à Vent,bar_mou,Sépulture isolée,1,périnatal
che_noe_1,"cercueil, coffrage ou brancard ?",architecture de bois et 9 clous,décomposition en espace vide,,,de volume simple,pleine terre,couchée,enveloppe souple,non,non,400,600,contexte (datation C14 d'1 autre sep : beta-342639 : 400-540 ap.),Chemery,Noëls et Malabris,che_noe,petit ensemble funéraire,1,enfant (5-7 ans)
con_gri_1,sarcophage,"calcaire, trapézoïdal","L : 2,10m, l : 0,56 à 0,40m",,,de volume simple,en matériau périssable cloué,couchée,indéterminé,non,non,500,700,contexte (+ datation C14 d'1 autre sep : beta-346204 : 550-650 ap.),Contres,Grille Midi / Côte rôtie,con_gri,petit ensemble funéraire,1,indéterminé
con_gri_2,coffrage de bois + calage de pierres,"blocs de grès (3 sep, GM) ; pierres calcaires (3 sep, CR)",,,,à aménagement(s) de parois,en matériau périssable non cloué,couchée,indéterminé,non,non,500,700,contexte (+ datation C14 d'1 autre sep : beta-346204 : 550-650 ap.),Contres,Grille Midi / Côte rôtie,con_gri,petit ensemble funéraire,6,3 adultes + 3 adultes ? (non fouillés)
con_gri_3,coffrage de bois,"traces de bois (1 sep, GM)",décomposition en espace vide (8 sep CR),,,de volume simple,en matériau périssable non cloué,couchée,indéterminé,non,oui,500,700,contexte (+ datation C14 d'1 autre sep : beta-346204 : 550-650 ap.),Contres,Grille Midi / Côte rôtie,con_gri,petit ensemble funéraire,9,"7 adultes ; 2 immatures (6,5-12,5 a et 11-16,5 a)"
etr_oza_2,coffrage de bois,couverture + planches longitudinales (sep 794 et 806),plaquettes calcaires de chant le long des parois longitudinales ou sur couvercle (sep 867) (intentionnel ?),,,de volume simple,en matériau périssable non cloué,couchée,indéterminé,non,non,700,1000,contexte (+ datation C14 d'1 autre sep : beta-337472 : 780-970 ap.),Etrechet,Ozans (ZAC d') - Fets de Renier,etr_oza,sep immatures en marge de l'habitat ?,5,immatures (- de 10 ans)
blo_ter_1,aménagement céphalique,blocs calcaires de part et d'autre du crâne,,,,de volume simple,mixte,couchée,indéterminé,non,oui,782,989,carbone 14 (Poz-42346),Blois,Terrasses de l'Evêché (les),blo_ter,cimetière paroissial,1,adulte
mer_bea_2,silo,"fosse, puits ou silo ?",décomposition en espace colmaté,,,structure prééxistante,pleine terre,foetale,indéterminé,non,non,-350,-110,carbone 14 (Beta-325053),Mer,Beaudisson,mer_bea,habitat,1,adulte
orl_abr_1,mixte,bords de fosse tapissés par du mortier + planches de couverture,,,,à aménagement(s) de parois,en matériau périssable non cloué,couchée,indéterminé,non,non,590,770,carbone 14 (GrN-30438 à 41),Orléans,Abreuvoir (rue de l'),orl_abr,petit ensemble funéraire,4,adulte
sai_gru_1,pleine terre,décomposition en espace colmaté,,,,de volume simple,pleine terre,couchée,indéterminé,non,non,670,775,carbone 14 (Beta-425150),Saint-Cyr,Gruette (La),sai_gru,petit ensemble funéraire,1,adulte
sai_gru_2,couverture de bois,décomposition en espace vide,enveloppe souple,,,de volume simple,pleine terre,couchée,enveloppe souple,non,non,652,864,carbone 14 (Beta-471468 à 70),Saint-Cyr,Gruette (La),sai_gru,petit ensemble funéraire,3,2 adultes ; 1 grand immature (15-25)
cir_sai_1,sarcophage,sarcophage calcaire trapézoïdal,,,,de forme indéterminée,sarcophage,couchée,indéterminé,non,non,700,1000,stratigraphie ; mobilier,Ciron,Saint-Michel en brenne (rue de),cir_sai,cimetiere paroissial,4,2 adultes ; 1 immature (+/- 14 a) ; 1 vide
cir_sai_2,coffrage ou cercueil chevillé ?,traces de bois et taphonomie,décomposition en espace vide,,,de volume simple,en matériau périssable non cloué,couchée,indéterminé,non,non,700,1000,strati + céram résiduelle IIIV-IX,Ciron,Saint-Michel en brenne (rue de),cir_sai,cimetiere paroissial,2,adulte
cir_sai_3,coffrage de bois ?,alignement pierres calcaires,décomposition en espace vide,,,de volume simple,mixte,couchée,indéterminé,non,non,700,1000,strati + céram résiduelle IIIV-IX,Ciron,Saint-Michel en brenne (rue de),cir_sai,cimetiere paroissial,2,adulte
cir_sai_4,pleine terre,décomposition en espace colmaté,,,,de volume simple,pleine terre,couchée,indéterminé,non,non,1000,1500,strati + mobilier X-XI et XV,Ciron,Saint-Michel en brenne (rue de),cir_sai,cimetiere paroissial,10,8 adultes ; 2 immatures (7a +/-24m ; 4a +/-12m)
cir_sai_5,coffrage ou cercueil chevillé ?,décomposition en espace vide,enfant : sur le ventre,,,de volume simple,en matériau périssable non cloué,couchée,indéterminé,non,non,1000,1500,strati + monnaie de 1436,Ciron,Saint-Michel en brenne (rue de),cir_sai,cimetiere paroissial,2,1 adulte ; 1 immature (4a +/-12m)
cir_sai_6,cercueil,bois et clous,,,,de volume simple,en matériau périssable cloué,couchée,indéterminé,non,non,1500,1800,stratigraphie ; mobilier,Ciron,Saint-Michel en brenne (rue de),cir_sai,cimetiere paroissial,2,immatures (périnatal et 16-20a)
cir_sai_7,pleine terre,décomposition en espace colmaté,épingles de linceul (5 cas),,,de volume simple,pleine terre,couchée,enveloppe souple,non,non,1500,1800,stratigraphie ; mobilier,Ciron,Saint-Michel en brenne (rue de),cir_sai,cimetiere paroissial,7,"2 adultes ; 5 immatures (périnatal, 18m +/-6m, 3a +/-12m, 4a +/-12m, 10a +/-30m)"
mer_bea_3,silo,décomposition en espace colmaté,,,,structure prééxistante,pleine terre,couchée,indéterminé,non,non,-600,-100,mobilier résiduel,Mer,Beaudisson Mer 02,mer_bea,habitat,1,adulte
neu_gra_1,silo,décomposition en espace colmaté,(colmatage rapide dans la plupart des cas),,,structure prééxistante,pleine terre,indéterminée,indéterminé,non,oui,-600,-400,contexte ; mobilier,Neuville-aux-Bois,Grande Route (La),neu_gra,zone de stockage,7,adultes
cha_rev_1,Vase funéraire découpé au col,décomposition en espace vide,colmatage rapide en certains endroits,,"vase funéraire, enchytrisme, périnatal, carrière",de volume simple,en céramique,foetale,indéterminé,non,non,170,300,céramique,Chartres,"Reverdy, Saint-Brice, Réservoirs",cha_rev,ensemble funéraire dans carrière,37,38 immatures (périnatal strict et large)
cha_rev_2,Vase funéraire découpé sur la panse,décomposition en espace vide,enveloppe souple ,,"vase funéraire, enchytrisme, périnatal, carrière",de volume simple,en céramique,couchée,indéterminé,non,non,170,300,céramique,Chartres,"Reverdy, Saint-Brice, Réservoirs",cha_rev,ensemble funéraire dans carrière,37,38 immatures (périnatal strict et large)
cha_rev_3,Vase funéraire découpé sur le fond,décomposition en espace vide,colmatage rapide en certains endroits,,"vase funéraire, enchytrisme, périnatal, carrière",de volume simple,en céramique,foetale,indéterminé,non,oui,201,300,céramique,Chartres,"Reverdy, Saint-Brice, Réservoirs",cha_rev,ensemble funéraire dans carrière,37,38 immatures (périnatal strict et large)
cha_egl_1,réduction dans sarcophage,décomposition en espace vide,dépôt secondaire (en coffrage ?) à la tête de la cuve,,"sarcophage, réduction, dépôt secondaire, ouverture de sarcophage, réutilisation de sarcophage",de forme indéterminée,sarcophage,couchée,indéterminé,non,non,428,609,carbone 14,Chartres,Église Saint-Martin-au-Val,cha_egl,sarcophages dans édifice cultuel,18,"3 jeunes immatures (1 [0], 2 [1-4]), 18 grands adolescents et adultes. "
cha_egl_2,sarcophage et réduction,décomposition en espace vide,"réduction sur le squelette en place, enveloppe souple",,"sarcophage, réduction, ouverture de sarcophage, pillage, réutilisation de sarcophage",de volume simple,sarcophage,couchée,enveloppe souple,non,non,602,674,carbone 14,Chartres,Église Saint-Martin-au-Val,cha_egl,sarcophages dans édifice cultuel,18,"3 jeunes immatures (1 [0], 2 [1-4]), 18 grands adolescents et adultes. "
cha_egl_3,sarcophage scellé,décomposition en espace vide,enveloppe souple ,,"sarcophage scellé, nourrisson",de volume simple,sarcophage,couchée,enveloppe souple,non,oui,466,600,strati + mobilier X-XI et XV,Chartres,Église Saint-Martin-au-Val,cha_egl,sarcophages dans édifice cultuel,18,"3 jeunes immatures (1 [0], 2 [1-4]), 18 grands adolescents et adultes. "
cha_egl_4,sarcophage réutilisé,décomposition en espace vide,,,"sarcophage, réduction, dépôt secondaire, ouverture de sarcophage, réutilisation de sarcophage",de volume simple,en matériau périssable cloué,couchée,indéterminé,non,oui,1435,1620,carbone 14,Chartres,Église Saint-Martin-au-Val,cha_egl,sarcophages dans édifice cultuel,3,
orv_aro_1,coffre de pierres,coffre de pierres,,céramique,,de forme indéterminée,sarcophage,couchée,indéterminé,non,non,-1200,-1000,mobilier,Orval,Arondes (les),orv_aro,sépulture isolée,1,adulte
ane_all_1,vidange,Pleine terre,,,,de volume simple,indéterminé,indéterminée,indéterminé,non,oui,-3079,-2892,carbone 14,Anet,Allée droite d'Oulins,ane_all,dépôt secondaire; nécropole à enclos,2,1 Adulte et 1 enfant de 7 ans
ane_all_2,aménagement de pierres,Aménagement de pierres,enveloppe souple,2 pointes de flèche,,de volume simple,mixte,indéterminée,indéterminé,non,non,-2020,-1773,carbone 14,Anet,Allée droite d'Oulins,ane_all,sépulture isolée; nécropole à enclos,1,adulte
aun_par_1,coffre de pierres,coffre de pierres,enveloppe souple,,,de volume simple,en pierres,couchée,indéterminé,non,oui,-3919,-3393,carbone 14 ; contexte,Auneau,Parc du Château (le),aun_par,Nécropole,4,adultes
aun_par_2,aménagement de pierres,Aménagement d'un dallage,,,,de volume simple,en pierres,foetale,enveloppe souple,non,non,-5729,-5471,carbone 14,Auneau,Parc du Château (le),aun_par,sépulture isolée,1,adulte
aun_par_3,pleine terre,Pleine terre,,,,de volume simple,pleine terre,foetale,indéterminé,non,oui,-4200,-3500,contexte,Auneau,Parc du Château (le),aun_par,Nécropole,8,Immatures
aun_par_4,aménagement de pierres,Aménagement de pierres,position assise du défunt,,,de volume simple,en pierres,assise,indéterminé,non,oui,-8242,-8020,carbone 14,Auneau,Parc du Château (le),aun_par,sépulture isolée,1,jeune adulte
aun_par_5,pleine terre,Pleine terre,,,,de volume simple,pleine terre,assise,indéterminé,non,non,-6588,-6520,carbone 14,Auneau,Parc du Château (le),aun_par,sépulture isolée,1,adulte
aun_par_6,pleine terre,Pleine terre,"sépulture ""secondaire""",,,de volume simple,en matériau périssable non cloué,foetale,indéterminé,non,oui,-7086,-6810,carbone 14,Auneau,Parc du Château (le),aun_par,sépulture secondaire,1,adulte
aun_par_7,sépulture sous dalle,sépulture sous dalle,vidange,"Céramique, lithique",,de volume simple,pleine terre,indéterminée,indéterminé,non,non,-3500,-2200,mobilier,Auneau,Parc du Château (le),aun_par,Sépulture collective,15,adultes ; immatures
yer_pie_1,dolmen,dolmen,vidange,,,de volume simple,en tumulus,indéterminée,indéterminé,non,oui,-2880,-2575,carbone 14,Yermenonville,Pierre Fritte,yer_pie,Sépulture collective,19,adultes ; immatures ; perinatal
cha_che_1,"pleine terre, aménagement en pierres",Aménagement de pierres,Pleine terre,céramique,,de volume simple,en pierres,indéterminée,indéterminé,non,oui,-4700,-4200,mobilier,Chambon,Chevrettes,cha_che,Nécropole,20,adultes ; immatures
fer_lou_1,pleine terre,Pleine terre,,,,de volume simple,pleine terre,indéterminée,indéterminé,non,oui,-3973,-3594,carbone 14,Ferriere-Larçon,Louziere,fer_lou,sépulture isolée,2,adultes
por_bec_1,chambre funéraire,chambre funéraire,,"Céramique, lithique",,de forme indéterminée,pleine terre,foetale,indéterminé,non,non,-3653,-2916,carbone 14,Ports,Bec des Deux Eaux,por_bec,Sépulture collective,13,adultes ; immature
pus_vig_1,cofffre de pierres,cofffre de pierres,,,,de volume simple,en pierres,indéterminée,indéterminé,non,oui,-4721,-4351,carbone 14,Pussigny,Vigneau (le),pus_vig,Nécropole,112,adultes ; immatures
pus_vig_2,coffre de pierres,coffre de pierres,,,,de forme indéterminée,en pierres,indéterminée,indéterminé,non,non,-1369,-1056,carbone 14,Pussigny,Vigneau (le),pus_vig,Nécropole,17,adultes
sub_gra_1,pleine terre,Pleine terre,,céramique,,de volume simple,pleine terre,couchée,indéterminé,non,non,-4700,-4200,mobilier,Sublaines,Grand Ormeau (le),sub_gra,Nécropole,1,indéterminé
sub_gra_2,"en fosse, aménagement en bois",Aménagement en bois,en fosse,,,de volume simple,pleine terre,foetale,indéterminé,non,oui,-3905,-3526,carbone 14,Sublaines,Grand Ormeau (le),sub_gra,Nécropole,4,adultes
lac_neu_1,sépulture sous dalle,sépulture sous dalle,,,,de volume simple,mixte,foetale,indéterminé,non,oui,-4493,-4355,carbone 14,La Chapelle Saint Mesmin,Neuf Arpents (les),lac_neu,Sépulture double,2,adulte ; immature
mal_cha_1,sépulture sous dalle,sépulture sous dalle,,,,de volume simple,en matériau périssable non cloué,couchée,indéterminé,non,non,-5560,-4620,carbone 14,Malhesherbes,Chaise (la),mal_cha,Sépulture double,2,adultes
mal_cha_2,pleine terre,Pleine terre,,,,de volume simple,pleine terre,foetale,indéterminé,non,non,-4464,-4346,carbone 14,Malhesherbes,Chaise (la),mal_cha,Sépulture,1,adulte
mal_mai_1,dolmen,dolmen,vidange,"Céramique, lithique",,de volume simple,en tumulus,foetale,indéterminé,non,oui,-3444,-3053,carbone 14,Malhesherbes,Mailleton (Dolmen de),mal_mai,Sépulture collective,50,adulte ; immature
mal_mar_1,sépulture sous dalle,sépulture sous dalle,,,,de volume simple,en tumulus,indéterminée,indéterminé,non,oui,-4700,-4200,contexte,Malhesherbes,Marsaules (les),mal_mar,Sépulture isolée,1,adulte
orv_fie_1,sépulture sous dalle,sépulture sous dalle,,,,de forme indéterminée,pleine terre,foetale,indéterminé,non,oui,-4565,-4269,carbone 14,Orville,Fiefs (les),orv_fie,Nécropole,1,adulte
orv_fie_2,pleine terre,Pleine terre,,,,de volume simple,en matériau périssable non cloué,couchée,indéterminé,non,oui,-4978,-4342,carbone 14,Orville,Fiefs (les),orv_fie,Nécropole,20,adulte ; immature
ane_all_3,vase funéraire en fosse,vase funéraire,,2 canines de porc,,de volume simple,pleine terre,foetale,indéterminé,non,oui,-1296,-1050,carbone 14,Anet,Allée droite d'Oulins,ane_all,sépulture isolée; nécropole à enclos,1,"immature (4,5-5 ans)"
sai_gra_1,"en fosse, pleine terre","en fosse, pleine terre",,2 vases déposés,,de volume simple,pleine terre,indéterminée,indéterminé,non,oui,-1300,-1100,céramique,Saint-Germain-du-Puy,Grand Pacage (le),sai_gra,"nécropole à enclos, inhumations et crémations associées",1,indéterminé
sai_gra_2,"en fosse, pleine terre","en fosse, pleine terre",Gros bloc de pierre sur les membres inférieurs,,,de volume simple,pleine terre,indéterminée,indéterminé,non,oui,-515,-381,carbone 14,Saint-Germain-du-Puy,Grand Pacage (le),sai_gra,"nécropole à enclos, inhumations et crémations associées",1,immature (11 ans +-36 mois)
tou_mar_2,"fosse à banquettes, tombe rupestre",tombe rupestre,fosse à banquettes (espace vide),,tombe rupestre ; fosse à banquettes,à aménagement(s) de parois,en matériau périssable non cloué,couchée,indéterminé,non,non,895,1021,carbone 14,Tours,Marmoutier (Abbaye),tou_mar,petit ensemble funéraire associé à une chapelle semi-troglo,30,immatures ; adultes
tou_mar_3,fosse rupestre à couvercle de pierres,tombe rupestre,fosse (espace vide) couverte,,tombe rupestre ; couvercle en pierre,à aménagement(s) de parois,pleine terre,couchée,indéterminé,non,non,614,694,carbone 14,Tours,Marmoutier (Abbaye),tou_mar,petit ensemble funéraire associé à une chapelle semi-troglo,30,immatures ; adultes
